%YAML 1.1
%TAG !u! tag:unity3d.com,2011:
--- !u!114 &11400000
MonoBehaviour:
  m_ObjectHideFlags: 0
  m_CorrespondingSourceObject: {fileID: 0}
  m_PrefabInstance: {fileID: 0}
  m_PrefabAsset: {fileID: 0}
  m_GameObject: {fileID: 0}
  m_Enabled: 1
  m_EditorHideFlags: 0
  m_Script: {fileID: 11500000, guid: f30e29a9c5d8a8046b17548c1c26d2ad, type: 3}
  m_Name: heavyTest4
  m_EditorClassIdentifier: 
  testName: ToughTest4
  testDescription: Tough test
  testDurationSeconds: 5
  type: 5
  gridSize: {x: 5, y: 5, z: 11}
