%YAML 1.1
%TAG !u! tag:unity3d.com,2011:
--- !u!114 &11400000
MonoBehaviour:
  m_ObjectHideFlags: 0
  m_CorrespondingSourceObject: {fileID: 0}
  m_PrefabInstance: {fileID: 0}
  m_PrefabAsset: {fileID: 0}
  m_GameObject: {fileID: 0}
  m_Enabled: 1
  m_EditorHideFlags: 0
  m_Script: {fileID: 11500000, guid: f30e29a9c5d8a8046b17548c1c26d2ad, type: 3}
  m_Name: 2MillionSmall
  m_EditorClassIdentifier: 
  testName: MediumTest2
  testDescription: 2 Mil tris, 2000 Small Objects
  testDurationSeconds: 30
  type: 2
  gridSize: {x: 20, y: 10, z: 10}
